{
    "gxy": {
        "sys1": [
            {
                "i": "10",
                "n": "jdilla",
                "t": "gotthat",
                "f": "uploads\\03-j_dilla-love_jones-ftd.mp3",
                "m": "aud",
                "r": "r0",
                "p": "p1",
                "s": "s0"
            },
            {
                "i": "11",
                "n": "miles",
                "t": "bridges",
                "f": "uploads\\03-j_dilla-love_jones-ftd.mp3",
                "m": "aud",
                "r": "r1",
                "p": "p1",
                "s": "s1"
            },
            {
                "i": "12",
                "n": "shiran",
                "t": "nametest",
                "f": "uploads\\03-j_dilla-love_jones-ftd.mp3",
                "m": "aud",
                "r": "r1",
                "p": "p1",
                "s": "s2"
            },
            {
                "i": "13",
                "n": "jasane",
                "t": "pics",
                "f": "uploads\\the shining cover.jpg",
                "m": "img",
                "r": "r2",
                "p": "p2",
                "s": "s3"
            },
            {
                "i": "14",
                "n": "sexyvids",
                "t": "xxx",
                "f": "uploads\\VID_20140915_171640.mp4",
                "m": "vid",
                "r": "r3",
                "p": "p3",
                "s": "s4"
            },
            {
                "i": "15",
                "n": "jasane",
                "t": "is my lover",
                "f": "uploads\\The-New-Inquiry-24-Bloodsport-HI.pdf",
                "m": "txt",
                "r": "r2",
                "p": "p2",
                "s": "s5"
            },
            {
                "i": "16",
                "n": "jasane",
                "t": "mami",
                "f": "uploads\\jsn.js",
                "m": "txt",
                "r": "r1",
                "p": "p1",
                "s": "s6"
            },
            {
                "i": "17",
                "n": "word",
                "t": "up",
                "f": "uploads\\Screen Shot 2014-09-14 at 6.12.45 PM.png",
                "m": "img",
                "r": "r1",
                "p": "p1",
                "s": "s7"
            },
            {
                "i": "18",
                "n": "baby",
                "t": "bottoms up",
                "f": "uploads\\02 Interlude I.mp3",
                "m": "aud",
                "r": "r3",
                "p": "p5",
                "s": "s8"
            },
            {
                "i": "19",
                "n": "busty",
                "t": "balls",
                "f": "uploads\\Screen Shot 2014-09-23 at 1.52.30 PM (2).png",
                "m": "img",
                "r": "r2",
                "p": "p1",
                "s": "s9"
            },
            {
                "i": "20",
                "n": "give it to me",
                "t": "yes yes",
                "f": "uploads\\07 Interlude III.mp3",
                "m": "aud",
                "r": "r3",
                "p": "p9",
                "s": "s10"
            },
            {
                "i": "21",
                "n": "jaybee",
                "t": "test",
                "f": "uploads\\arouville.jpeg",
                "m": "img",
                "r": "r1",
                "p": "p1",
                "s": "s11"
            },
            {
                "i": "25",
                "n": "testingme",
                "t": "ollalala",
                "f": "uploads\\ScreenShot2014-09-23at1.52.34PM.png",
                "m": "img",
                "r": "r3",
                "p": "p5",
                "s": "s12"
            },
            {
                "i": "42",
                "n": "test",
                "t": "testafbags",
                "f": "uploads\/layout1.png,uploads\/layout2.png,uploads\/layout3.png,",
                "m": "img",
                "r": "r2",
                "p": "p6",
                "s": "s13"
            }
        ],
        "sys2": [],
        "sys3": [
            {
                "i": "35",
                "n": "3 ",
                "t": "test",
                "f": "uploads\/ScreenShot2014-09-10at6.29.37PM.png,uploads\/ScreenShot2014-09-10at6.29.35PM.png,uploads\/ScreenShot2014-09-10at6.29.30PM.png,",
                "m": "img",
                "r": "r0",
                "p": "p1",
                "s": "s0"
            },
            {
                "i": "36",
                "n": "asdasd",
                "t": "asdasd",
                "f": "uploads\/ScreenShot2014-09-03at6.38.04PM.png,uploads\/ScreenShot2014-09-03at6.38.03PM(2).png,uploads\/ScreenShot2014-09-03at6.38.03PM.png,",
                "m": "img",
                "r": "r1",
                "p": "p1",
                "s": "s1"
            },
            {
                "i": "37",
                "n": "dsfsdf",
                "t": "asdfasd",
                "f": "uploads\/ScreenShot2014-09-02at5.50.57PM.png,uploads\/ScreenShot2014-09-02at5.50.56PM.png,uploads\/ScreenShot2014-09-02at5.50.55PM.png,",
                "m": "img",
                "r": "r1",
                "p": "p1",
                "s": "s2"
            },
            {
                "i": "38",
                "n": "dfdsfsd",
                "t": "sdfdss",
                "f": "uploads\/ScreenShot2014-09-11at5.49.45PM.png,uploads\/ScreenShot2014-09-11at5.49.44PM.png,uploads\/ScreenShot2014-09-11at5.49.43PM.png,",
                "m": "img",
                "r": "r2",
                "p": "p2",
                "s": "s3"
            },
            {
                "i": "39",
                "n": "dfdsf",
                "t": "dsfds",
                "f": "uploads\/ScreenShot2014-09-10at6.29.30PM.png,uploads\/ScreenShot2014-09-10at6.28.47PM.png,uploads\/ScreenShot2014-09-10at6.28.46PM.png,",
                "m": "img",
                "r": "r3",
                "p": "p3",
                "s": "s4"
            },
            {
                "i": "40",
                "n": "dfsdf",
                "t": "dfsd",
                "f": "uploads\/ScreenShot2014-09-02at6.34.33PM.png,uploads\/ScreenShot2014-09-02at6.34.32PM.png,uploads\/ScreenShot2014-09-02at6.34.31PM.png,",
                "m": "img",
                "r": "r2",
                "p": "p1",
                "s": "s5"
            },
            {
                "i": "41",
                "n": "dasda",
                "t": "asdas",
                "f": "uploads\/ScreenShot2014-09-14at6.12.49PM.png,",
                "m": "img",
                "r": "r2",
                "p": "p1",
                "s": "s6"
            },
            {
                "i": "43",
                "n": "k",
                "t": "n",
                "f": "uploads\/EECS-2009-28.pdf,",
                "m": "txt",
                "r": "r3",
                "p": "p3",
                "s": "s7"
            },
            {
                "i": "44",
                "n": "kn",
                "t": "ml",
                "f": "uploads\/ErykahBadu,Kaytradamus-LoveOfMyLife.mp3,",
                "m": "aud",
                "r": "r3",
                "p": "p3",
                "s": "s8"
            }
        ],
        "sys4": [],
        "sys5": [],
        "sys6": [
            {
                "i": "31",
                "n": "shiran",
                "t": "lolololo",
                "f": "uploads\\ScreenShot2014-09-11at6.24.36PM.png",
                "m": "img",
                "r": "r0",
                "p": "p1",
                "s": "s0"
            },
            {
                "i": "32",
                "n": "yrdy",
                "t": "yrdy",
                "f": "uploads\\ScreenShot2014-09-23at1.52.34PM(2).png",
                "m": "img",
                "r": "r1",
                "p": "p1",
                "s": "s1"
            },
            {
                "i": "33",
                "n": "i",
                "t": " loves",
                "f": "uploads\\ScreenShot2014-09-11at5.52.43PM.png",
                "m": "img",
                "r": "r2",
                "p": "p1",
                "s": "s4"
            },
            {
                "i": "34",
                "n": "test",
                "t": "testststs",
                "f": "uploads\\571fl14draftrevised.doc",
                "m": "txt",
                "r": "r2",
                "p": "p1",
                "s": "s3"
            }
        ],
        "sys7": [],
        "sys8": [
            {
                "i": "26",
                "n": "miles",
                "t": "best friend",
                "f": "uploads\\01TransitTransit.mp3",
                "m": "aud",
                "r": "r0",
                "p": "p1",
                "s": "s0"
            },
            {
                "i": "28",
                "n": "testy",
                "t": "testme",
                "f": "uploads\\01TransitTransit.mp3",
                "m": "aud",
                "r": "r1",
                "p": "p1",
                "s": "s2"
            },
            {
                "i": "30",
                "n": "transit",
                "t": "transit",
                "f": "uploads\\01TransitTransit.mp3",
                "m": "aud",
                "r": "r2",
                "p": "p2",
                "s": "s4"
            }
        ],
        "sys9": []
    }
}